<svg xmlns="http://www.w3.org/2000/svg" width="24" height="24" viewBox="0 0 24 24">
    <g fill="#C2C2C2" fill-rule="evenodd" transform="translate(4 4)">
        <rect width="18" height="2" x="-1" y="7" rx="1" transform="rotate(45 8 8)"/>
        <rect width="18" height="2" x="-1" y="7" rx="1" transform="rotate(135 8 8)"/>
    </g>
</svg>
